^U:\VISUAL_PROJECTS\SQUAREDAMOUNT\SQUAREDAMOUNT\SQUAREDAMOUNT.CPP
U:\VISUAL_PROJECTS\SQUAREDAMOUNT\SQUAREDAMOUNT\DEBUG\VC142.PDB
U:\VISUAL_PROJECTS\SQUAREDAMOUNT\SQUAREDAMOUNT\DEBUG\VC142.IDB
U:\VISUAL_PROJECTS\SQUAREDAMOUNT\SQUAREDAMOUNT\DEBUG\SQUAREDAMOUNT.OBJ
